Data/JitterTest_260331-0401/Waveform_2026-03-31_141445_943010950.csv

Model,RTH1004
SerialNumber,104154
Firmware Version,'1.70.3.2'

Acquisition Time Stamp,2026-03-31 14:14:45.94301095,2026-03-31 14:14:45.94301095
Waveform Type,ANALOG,
Acquisition Mode,SAMPLE,
Horizontal Unit,s,
Horizontal Scale,0.2,
Horizontal Position,0.8,
Reference Point,50 %,
Sample Interval,1.6e-05,
Record Length,125000,
Probe Setting,'10:1','10:1'
Vertical Unit,V,V
Vertical Scale,2,2
Vertical Position,-3,0
Vertical Offset,0,0
History Index,0,0
History Time Stamp,0.000000000000,0.000000000000
,,
TIME,CH1,CH2
-0.2,-0.0862745,0.15686
-0.199984,-0.14902,0.12549
-0.199968,-0.0862745,0.15686
-0.199952,-0.0235294,0.18824
-0.199936,-0.054902,0.094118
-0.19992,-0.0862745,0.15686
-0.199904,-0.0235294,0.12549
-0.199888,-0.0862745,0.12549
-0.199872,-0.117647,0.12549
-0.199856,-0.0862745,0.12549
-0.19984,0.0392157,0.15686
-0.199824,-0.0235294,0.18824
-0.199808,-0.0862745,0.18824
-0.199792,-0.0862745,0.12549
-0.199776,-0.054902,0.15686
-0.19976,-0.054902,0.12549
-0.199744,-0.054902,0.094118
-0.199728,-0.0862745,0.12549
-0.199712,-0.0862745,0.12549
-0.199696,-0.0862745,0.094118
-0.19968,-0.117647,0.094118
-0.199664,-0.14902,0.062745
-0.199648,-0.054902,0.15686
-0.199632,-0.054902,0.031373
-0.199616,0.00784314,0.18824
-0.1996,-0.0862745,0.12549
-0.199584,-0.054902,0.15686
-0.199568,-0.054902,0.12549
-0.199552,0.00784314,0.12549
-0.199536,-0.054902,0.12549
-0.19952,-0.054902,0.12549
-0.199504,-0.0862745,0.15686
-0.199488,-0.0862745,0.18824
-0.199472,-0.0235294,0.18824
-0.199456,-0.0235294,0.12549
-0.19944,-0.054902,0.15686
-0.199424,-0.0235294,0.12549
-0.199408,0.00784314,0.12549
-0.199392,-0.0862745,0.12549
-0.199376,-0.0235294,0.094118
-0.19936,-0.0235294,0.15686
-0.199344,-0.054902,0.12549
-0.199328,-0.0862745,0.15686
-0.199312,-0.054902,0.12549
-0.199296,0.00784314,0.18824
-0.19928,-0.054902,0.12549
-0.199264,-0.0235294,0.094118
-0.199248,-0.054902,0.15686
-0.199232,-0.054902,0.12549
-0.199216,-0.0862745,0.21961
-0.1992,-0.0862745,0.18824
-0.199184,-0.0862745,0.15686
-0.199168,-0.0862745,0.18824
-0.199152,-0.117647,0.18824
-0.199136,-0.117647,0.21961
-0.19912,-0.0862745,0.15686
-0.199104,-0.14902,0.12549
-0.199088,-0.0862745,0.15686
-0.199072,-0.117647,0.094118
-0.199056,-0.054902,0.12549
-0.19904,-0.117647,0.15686
-0.199024,-0.14902,0.15686
-0.199008,0.0392157,0.15686
-0.198992,-0.0862745,0.15686
-0.198976,-0.0235294,0.12549
-0.19896,-0.117647,0.15686
-0.198944,-0.054902,0.094118
-0.198928,-0.0862745,0.15686
-0.198912,-0.0862745,0.15686
-0.198896,-0.117647,0.18824
-0.19888,-0.0235294,0.15686
-0.198864,-0.054902,0.12549
-0.198848,-0.0862745,0.12549
-0.198832,-0.0862745,0.18824
-0.198816,-0.0862745,0.15686
-0.1988,-0.054902,0.094118
-0.198784,-0.0862745,0.18824
-0.198768,-0.0235294,0.15686
-0.198752,0.00784314,0.12549
-0.198736,-0.180392,0.15686
-0.19872,-0.0235294,0.18824
-0.198704,-0.054902,0.21961
-0.198688,-0.054902,0.12549
-0.198672,-0.054902,0.12549
-0.198656,-0.054902,0.15686
-0.19864,-0.0862745,0.25098
-0.198624,-0.0862745,0.15686
-0.198608,0.00784314,0.12549
-0.198592,-0.054902,0.12549
-0.198576,-0.0862745,0.12549
-0.19856,-0.054902,0.15686
-0.198544,-0.054902,0.15686
-0.198528,-0.0862745,0.12549
-0.198512,-0.0862745,0.12549
-0.198496,-0.054902,0.21961
-0.19848,-0.054902,0.18824
-0.198464,-0.0235294,0.12549
-0.198448,-0.054902,0.18824
-0.198432,-0.0235294,0.12549
-0.198416,-0.054902,0.15686
-0.1984,-0.054902,0.15686
-0.198384,-0.0862745,0.18824
-0.198368,-0.054902,0.15686
-0.198352,-0.054902,0.12549
-0.198336,-0.0235294,0.12549
-0.19832,-0.054902,0.12549
-0.198304,-0.0862745,0.15686
-0.198288,-0.054902,0.18824
-0.198272,-0.054902,0.15686
-0.198256,-0.0235294,0.12549
-0.19824,0.0392157,0.15686
-0.198224,-0.054902,0.094118
-0.198208,-0.0235294,0.18824
-0.198192,-0.117647,0.15686
-0.198176,-0.0235294,0.18824
-0.19816,0.00784314,0.12549
-0.198144,-0.0862745,0.15686
-0.198128,-0.0235294,0.15686
-0.198112,-0.054902,0.15686
-0.198096,0.00784314,0.094118
-0.19808,-0.0235294,0.15686
-0.198064,-0.0235294,0.12549
-0.198048,0.00784314,0.12549
-0.198032,0.00784314,0.094118
-0.198016,-0.0235294,0.12549
-0.198,-0.054902,0.094118
-0.197984,-0.054902,0.12549
-0.197968,-0.054902,0.15686
-0.197952,-0.054902,0.12549
-0.197936,-0.117647,0.12549
-0.19792,0.00784314,0.15686
-0.197904,-0.0862745,0.15686
-0.197888,0.00784314,0.18824
-0.197872,-0.0235294,0.12549
-0.197856,-0.0862745,0.15686
-0.19784,-0.117647,0.21961
-0.197824,-0.14902,0.12549
-0.197808,-0.054902,0.21961
-0.197792,-0.117647,0.15686
-0.197776,-0.054902,0.15686
-0.19776,-0.054902,0.12549
-0.197744,-0.0862745,0.12549
-0.197728,-0.0235294,0.12549
-0.197712,-0.054902,0.094118
-0.197696,0.0392157,0.15686
-0.19768,-0.0862745,0.12549
-0.197664,-0.0235294,0.15686
-0.197648,-0.054902,0.12549
-0.197632,-0.054902,0.15686
-0.197616,-0.0235294,0.15686
-0.1976,-0.054902,0.12549
-0.197584,-0.0235294,0.15686
-0.197568,-0.0862745,0.15686
-0.197552,0.0392157,0.12549
-0.197536,-0.054902,0.12549
-0.19752,-0.0862745,0.094118
-0.197504,-0.054902,0.15686
-0.197488,-0.0862745,0.15686
-0.197472,-0.0862745,0.15686
-0.197456,0.00784314,0.12549
-0.19744,-0.0862745,0.15686
-0.197424,-0.054902,0.15686
-0.197408,-0.0862745,0.094118
-0.197392,-0.054902,0.18824
-0.197376,-0.0235294,0.15686
-0.19736,-0.054902,0.12549
-0.197344,0.0392157,0.15686
-0.197328,-0.054902,0.18824
-0.197312,-0.054902,0.15686
-0.197296,-0.0862745,0.18824
-0.19728,-0.0862745,0.12549
-0.197264,-0.0235294,0.062745
-0.197248,-0.0862745,0.18824
-0.197232,-0.0862745,0.15686
-0.197216,-0.054902,0.15686
-0.1972,-0.054902,0.12549
-0.197184,-0.054902,0.12549
-0.197168,-0.117647,0.15686
-0.197152,0.0392157,0.15686
-0.197136,-0.054902,0.12549
-0.19712,-0.054902,0.15686
-0.197104,0.0392157,0.12549
-0.197088,-0.0862745,0.12549
-0.197072,-0.0862745,0.094118
-0.197056,-0.054902,0.15686
-0.19704,-0.0862745,0.15686
-0.197024,-0.0862745,0.15686
-0.197008,-0.054902,0.15686
-0.196992,-0.054902,0.15686
-0.196976,-0.0862745,0.15686
-0.19696,-0.054902,0.15686
-0.196944,-0.0862745,0.15686
-0.196928,-0.0235294,0.21961
-0.196912,0.0392157,0.15686
-0.196896,-0.054902,0.15686
-0.19688,-0.054902,0.12549
-0.196864,-0.0862745,0.15686
-0.196848,-0.0235294,0.12549
-0.196832,-0.054902,0.15686
-0.196816,-0.054902,0.15686
-0.1968,-0.0235294,0.15686
-0.196784,-0.0862745,0.094118
-0.196768,-0.054902,0.12549
-0.196752,-0.054902,0.094118
-0.196736,-0.054902,0.15686
-0.19672,-0.0235294,0.12549
-0.196704,-0.054902,0.15686
-0.196688,0.00784314,0.15686
-0.196672,-0.0862745,0.12549
-0.196656,-0.117647,0.15686
-0.19664,-0.0235294,0.15686
-0.196624,-0.054902,0.18824
-0.196608,-0.117647,0.12549
-0.196592,-0.0235294,0.12549
-0.196576,-0.054902,0.15686
-0.19656,-0.054902,0.12549
-0.196544,-0.0235294,0.15686
-0.196528,-0.0862745,0.15686
-0.196512,0.0392157,0.18824
-0.196496,-0.054902,0.12549
-0.19648,-0.0862745,0.15686
-0.196464,-0.0862745,0.15686
-0.196448,-0.0235294,0.18824
-0.196432,-0.0235294,0.15686
-0.196416,-0.054902,0.094118
-0.1964,-0.117647,0.094118
-0.196384,-0.0235294,0.15686
-0.196368,-0.0862745,0.094118
-0.196352,-0.0862745,0.094118
-0.196336,-0.14902,0.094118
-0.19632,-0.0235294,0.094118
-0.196304,-0.0862745,0.15686
-0.196288,-0.054902,0.12549
-0.196272,-0.0862745,0.15686
-0.196256,-0.054902,0.15686
-0.19624,-0.0862745,0.094118
-0.196224,-0.0862745,0.12549
-0.196208,-0.054902,0.15686
-0.196192,-0.0862745,0.12549
-0.196176,-0.054902,0.15686
-0.19616,0.00784314,0.15686
-0.196144,-0.0235294,0.21961
-0.196128,-0.0235294,0.15686
-0.196112,-0.0862745,0.15686
-0.196096,0.0392157,0.18824
-0.19608,-0.054902,0.21961
-0.196064,-0.054902,0.12549
-0.196048,0.00784314,0.062745
-0.196032,-0.0862745,0.094118
-0.196016,-0.054902,0.15686
-0.196,-0.054902,0.12549
-0.195984,-0.054902,0.12549
-0.195968,-0.14902,0.094118
-0.195952,-0.0862745,0.12549
-0.195936,0.00784314,0.094118
-0.19592,-0.180392,0.15686
-0.195904,-0.054902,0.12549
-0.195888,-0.0862745,0.094118
-0.195872,-0.0862745,0.15686
-0.195856,-0.0235294,0.094118
-0.19584,-0.0862745,0.12549
-0.195824,-0.0862745,0.18824
-0.195808,-0.0862745,0.15686
-0.195792,0.00784314,0.094118
-0.195776,-0.0862745,0.15686
-0.19576,-0.14902,0.12549
-0.195744,-0.054902,0.12549
-0.195728,-0.0235294,0.12549
-0.195712,-0.0862745,0.15686
-0.195696,-0.0862745,0.15686
-0.19568,0.0392157,0.15686
-0.195664,-0.054902,0.15686
-0.195648,-0.0235294,0.094118
-0.195632,-0.0235294,0.12549
-0.195616,-0.0862745,0.12549
-0.1956,-0.0235294,0.062745
-0.195584,-0.054902,0.15686
-0.195568,0.0392157,0.12549
-0.195552,-0.0862745,0.12549
-0.195536,-0.0235294,0.18824
-0.19552,-0.14902,0.12549
-0.195504,-0.0235294,0.094118
-0.195488,-0.0235294,0.094118
-0.195472,-0.0862745,0.15686
-0.195456,-0.180392,0.15686
-0.19544,-0.054902,0.12549
-0.195424,-0.0235294,0.15686
-0.195408,0.0705882,0.094118
-0.195392,-0.054902,0.12549
-0.195376,-0.054902,0.15686
-0.19536,-0.0235294,0.094118
-0.195344,-0.14902,0.21961
-0.195328,-0.117647,0.094118
-0.195312,-0.0862745,0.12549
-0.195296,-0.0235294,0.12549
-0.19528,-0.054902,0.21961
-0.195264,0.0392157,0.12549
-0.195248,-0.054902,0.12549
-0.195232,-0.0862745,0.12549
-0.195216,0.00784314,0.15686
-0.1952,0.0392157,0.094118
-0.195184,-0.0235294,0.15686
-0.195168,0.00784314,0.094118
-0.195152,-0.054902,0.15686
-0.195136,-0.0862745,0.12549
-0.19512,-0.054902,0.15686
-0.195104,0.00784314,0.12549
-0.195088,-0.0862745,0.12549
-0.195072,-0.0862745,0.12549
-0.195056,-0.054902,0.18824
-0.19504,-0.054902,0.094118
-0.195024,-0.117647,0.094118
-0.195008,0.00784314,0.15686
-0.194992,-0.0862745,0.12549
-0.194976,-0.054902,0.12549
-0.19496,-0.054902,0.12549
-0.194944,-0.0862745,0.12549
-0.194928,-0.117647,0.12549
-0.194912,0.00784314,0.15686
-0.194896,-0.0235294,0.18824
-0.19488,-0.054902,0.15686
-0.194864,0.00784314,0.12549
-0.194848,-0.0862745,0.12549
-0.194832,-0.0235294,0.15686
-0.194816,-0.0235294,0.12549
-0.1948,-0.054902,0.094118
-0.194784,-0.054902,0.15686
-0.194768,-0.0235294,0.21961
-0.194752,-0.0235294,0.15686
-0.194736,-0.14902,0.094118
-0.19472,-0.054902,0.15686
-0.194704,0.00784314,0.12549
-0.194688,-0.0862745,0.12549
-0.194672,-0.054902,0.12549
-0.194656,0.00784314,0.15686
-0.19464,-0.054902,0.094118
-0.194624,-0.0862745,0.12549
-0.194608,-0.054902,0.12549
-0.194592,-0.054902,0.12549
-0.194576,-0.054902,0.15686
-0.19456,0.00784314,0.094118
-0.194544,-0.0862745,0.15686
-0.194528,-0.0862745,0.12549
-0.194512,-0.14902,0.12549
-0.194496,-0.0862745,0.12549
-0.19448,-0.054902,0.12549
-0.194464,-0.054902,0.12549
-0.194448,-0.0862745,0.15686
-0.194432,-0.0862745,0.18824
-0.194416,-0.117647,0.12549
-0.1944,-0.0235294,0.15686
-0.194384,-0.0235294,0.18824
-0.194368,0.00784314,0.15686
-0.194352,-0.0862745,0.18824
-0.194336,0.0392157,0.12549
-0.19432,-0.117647,0.094118
-0.194304,-0.0235294,0.12549
-0.194288,-0.054902,0.12549
-0.194272,-0.117647,0.094118
-0.194256,-0.0235294,0.15686
-0.19424,-0.0862745,0.094118
-0.194224,-0.117647,0.12549
-0.194208,-0.0862745,0.12549
-0.194192,-0.14902,0.12549
-0.194176,-0.054902,0.12549
-0.19416,0.0392157,0.21961
-0.194144,-0.0862745,0.12549
-0.194128,-0.117647,0.062745
-0.194112,-0.117647,0.094118
-0.194096,-0.0862745,0.062745
-0.19408,-0.054902,0.12549
-0.194064,0.00784314,0.12549
-0.194048,-0.054902,0.15686
-0.194032,-0.054902,0.12549
-0.194016,-0.0235294,0.094118
-0.194,-0.0862745,0.12549
-0.193984,-0.054902,0.15686
-0.193968,-0.14902,0.18824
-0.193952,-0.054902,0.21961
-0.193936,-0.180392,0.094118
-0.19392,-0.054902,0.15686
-0.193904,-0.054902,0.12549
-0.193888,-0.054902,0.12549
-0.193872,0.0392157,0.12549
-0.193856,-0.0235294,0.12549
-0.19384,-0.054902,0.15686
-0.193824,-0.117647,0.12549
-0.193808,-0.054902,0.15686
-0.193792,-0.117647,0.12549
-0.193776,-0.0235294,0.15686
-0.19376,-0.054902,0.15686
-0.193744,-0.054902,0.18824
-0.193728,-0.054902,0.12549
-0.193712,0.00784314,0.18824
-0.193696,-0.054902,0.12549
-0.19368,-0.0235294,0.12549
-0.193664,-0.0862745,0.15686
-0.193648,-0.0862745,0.18824
-0.193632,0.0392157,0.15686
-0.193616,-0.0862745,0.15686
-0.1936,-0.054902,0.12549
-0.193584,-0.0862745,0.12549
-0.193568,-0.054902,0.15686
-0.193552,-0.054902,0.15686
-0.193536,-0.0235294,0.094118
-0.19352,-0.0862745,0.15686
-0.193504,0.00784314,0.18824
-0.193488,-0.0862745,0.15686
-0.193472,-0.0235294,0.12549
-0.193456,-0.0862745,0.12549
-0.19344,-0.054902,0.094118
-0.193424,-0.054902,0.12549
-0.193408,-0.117647,0.15686
-0.193392,-0.054902,0.15686
-0.193376,-0.054902,0.12549
-0.19336,-0.054902,0.094118
-0.193344,-0.0235294,0.15686
-0.193328,-0.054902,0.12549
-0.193312,-0.0235294,0.12549
-0.193296,-0.117647,0.12549
-0.19328,-0.054902,0.15686
-0.193264,-0.054902,0.094118
-0.193248,-0.0862745,0.15686
-0.193232,-0.054902,0.15686
-0.193216,-0.054902,0.15686
-0.1932,-0.0235294,0.18824
-0.193184,-0.117647,0.12549
-0.193168,-0.054902,0.21961
-0.193152,0.00784314,0.15686
-0.193136,-0.0235294,0.15686
-0.19312,0.0392157,0.15686
-0.193104,-0.054902,0.18824
-0.193088,-0.054902,0.15686
-0.193072,-0.054902,0.15686
-0.193056,0.00784314,0.12549
-0.19304,0.0392157,0.15686
-0.193024,-0.054902,0.12549
-0.193008,-0.0862745,0.12549
-0.192992,-0.054902,0.094118
-0.192976,-0.14902,0.12549
-0.19296,-0.0235294,0.12549
-0.192944,-0.054902,0.12549
-0.192928,-0.054902,0.15686
-0.192912,-0.0862745,0.12549
-0.192896,-0.054902,0.12549
-0.19288,-0.0235294,0.12549
-0.192864,-0.0862745,0.12549
-0.192848,-0.054902,0.15686
-0.192832,-0.0235294,0.15686
-0.192816,-0.0862745,0.18824
-0.1928,-0.0862745,0.12549
-0.192784,0.00784314,0.094118
-0.192768,-0.14902,0.15686
-0.192752,-0.0862745,0.18824
-0.192736,-0.117647,0.15686
-0.19272,-0.054902,0.12549
-0.192704,-0.0235294,0.18824
-0.192688,0.00784314,0.12549
-0.192672,-0.0862745,0.15686
-0.192656,-0.0235294,0.15686
-0.19264,0.0392157,0.18824
-0.192624,-0.0862745,0.15686
-0.192608,-0.0235294,0.12549
-0.192592,0.0392157,0.12549
-0.192576,-0.0235294,0.15686
-0.19256,-0.054902,0.15686
-0.192544,-0.054902,0.12549
-0.192528,-0.054902,0.094118
-0.192512,-0.117647,0.18824
-0.192496,-0.0862745,0.18824
-0.19248,-0.054902,0.15686
-0.192464,-0.054902,0.15686
-0.192448,-0.0235294,0.18824
-0.192432,-0.0862745,0.094118
-0.192416,0.00784314,0.15686
-0.1924,-0.0235294,0.12549
-0.192384,-0.0862745,0.094118
-0.192368,-0.054902,0.12549
-0.192352,-0.054902,0.18824
-0.192336,-0.054902,0.12549
-0.19232,-0.0235294,0.15686
-0.192304,-0.117647,0.12549
-0.192288,-0.0862745,0.15686
-0.192272,-0.0862745,0.12549
-0.192256,-0.054902,0.094118
-0.19224,-0.0235294,0.15686
-0.192224,-0.0235294,0.21961
-0.192208,-0.054902,0.15686
-0.192192,-0.0235294,0.12549
-0.192176,-0.0862745,0.12549
-0.19216,-0.0235294,0.15686
-0.192144,-0.054902,0.094118
-0.192128,-0.0862745,0.15686
-0.192112,-0.054902,0.12549
-0.192096,-0.117647,0.15686
-0.19208,-0.054902,0.12549
-0.192064,-0.054902,0.15686
-0.192048,0.00784314,0.062745
-0.192032,-0.0862745,0.15686
-0.192016,-0.054902,0.12549
-0.192,-0.0862745,0.18824
-0.191984,-0.0862745,0.12549
-0.191968,-0.054902,0.15686
-0.191952,-0.054902,0.15686
-0.191936,-0.0235294,0.12549
-0.19192,0.00784314,0.094118
-0.191904,-0.054902,0.15686
-0.191888,-0.0862745,0.094118
-0.191872,-0.0862745,0.15686
-0.191856,-0.054902,0.12549
-0.19184,-0.0235294,0.094118
-0.191824,-0.117647,0.12549
-0.191808,-0.0235294,0.15686
-0.191792,-0.0862745,0.12549
-0.191776,-0.054902,0.15686
-0.19176,-0.0235294,0.12549
-0.191744,-0.054902,0.15686
-0.191728,-0.054902,0.15686
-0.191712,-0.0862745,0.15686
-0.191696,-0.054902,0.12549
-0.19168,-0.054902,0.12549
-0.191664,-0.0235294,0.18824
-0.191648,-0.0862745,0.12549
-0.191632,-0.054902,0.15686
-0.191616,-0.0862745,0.094118
-0.1916,-0.14902,0.15686
-0.191584,-0.054902,0.12549
-0.191568,-0.0862745,0.15686
-0.191552,-0.14902,0.12549
-0.191536,-0.0862745,0.15686
-0.19152,-0.054902,0.12549
-0.191504,-0.0862745,0.12549
-0.191488,-0.054902,0.15686
-0.191472,-0.054902,0.15686
-0.191456,-0.054902,0.15686
-0.19144,0.0392157,0.062745
-0.191424,-0.054902,0.12549
-0.191408,-0.14902,0.12549
-0.191392,-0.0862745,0.12549
-0.191376,-0.0235294,0.12549
-0.19136,-0.0862745,0.15686
-0.191344,-0.054902,0.12549
-0.191328,-0.054902,0.094118
-0.191312,0.0392157,0.094118
-0.191296,-0.0235294,0.12549
-0.19128,-0.0862745,0.15686
-0.191264,-0.0235294,0.12549
-0.191248,-0.0235294,0.12549
-0.191232,-0.0862745,0.18824
-0.191216,-0.054902,0.21961
-0.1912,-0.0235294,0.12549
-0.191184,-0.14902,0.21961
-0.191168,-0.0862745,0.15686
-0.191152,0.0392157,0.12549
-0.191136,-0.117647,0.15686
-0.19112,-0.0235294,0.12549
-0.191104,-0.0235294,0.15686
-0.191088,-0.14902,0.12549
-0.191072,-0.0862745,0.094118
-0.191056,-0.0235294,0.094118
-0.19104,-0.054902,0.18824
-0.191024,-0.0235294,0.21961
-0.191008,-0.0862745,0.12549
-0.190992,-0.054902,0.12549
-0.190976,0.00784314,0.18824
-0.19096,0.00784314,0.15686
-0.190944,0.0392157,0.18824
-0.190928,-0.0862745,0.15686
-0.190912,-0.0235294,0.15686
-0.190896,0.00784314,0.15686
-0.19088,0.0392157,0.18824
-0.190864,-0.0235294,0.18824
-0.190848,-0.0862745,0.15686
-0.190832,0.0392157,0.25098
-0.190816,-0.0862745,0.15686
-0.1908,-0.054902,0.12549
-0.190784,-0.0862745,0.12549
-0.190768,-0.0235294,0.12549
-0.190752,-0.117647,0.12549
-0.190736,-0.0235294,0.12549
-0.19072,-0.0235294,0.25098
-0.190704,-0.0235294,0.15686
-0.190688,-0.0862745,0.18824
-0.190672,-0.0862745,0.12549
-0.190656,-0.0235294,0.12549
-0.19064,-0.054902,0.094118
-0.190624,-0.054902,0.15686
-0.190608,-0.054902,0.12549
-0.190592,0.0392157,0.12549
-0.190576,-0.054902,0.094118
-0.19056,0.0392157,0.15686
-0.190544,-0.054902,0.12549
-0.190528,-0.0862745,0.15686
-0.190512,-0.054902,0.094118
-0.190496,-0.0862745,0.18824
-0.19048,-0.0862745,0.18824
-0.190464,-0.14902,0.12549
-0.190448,0.0392157,0.094118
-0.190432,-0.054902,0.15686
-0.190416,-0.054902,0.094118
-0.1904,-0.054902,0.15686
-0.190384,-0.0862745,0.12549
-0.190368,-0.054902,0.15686
-0.190352,-0.0862745,0.094118
-0.190336,-0.054902,0.12549
-0.19032,-0.054902,0.094118
-0.190304,-0.117647,0.12549
-0.190288,-0.0235294,0.094118
-0.190272,-0.0862745,0.15686
-0.190256,-0.0235294,0.12549
-0.19024,-0.14902,0.12549
-0.190224,-0.0235294,0.15686
-0.190208,-0.054902,0.21961
-0.190192,-0.0862745,0.12549
-0.190176,-0.0235294,0.18824
-0.19016,-0.0235294,0.18824
-0.190144,-0.0862745,0.12549
-0.190128,-0.054902,0.094118
-0.190112,-0.0862745,0.12549
-0.190096,0.00784314,0.094118
-0.19008,-0.054902,0.15686
-0.190064,0.0392157,0.094118
-0.190048,-0.054902,0.12549
-0.190032,-0.054902,0.15686
-0.190016,-0.0862745,0.15686
-0.19,-0.0235294,0.12549
-0.189984,-0.0862745,0.12549
-0.189968,-0.054902,0.18824
-0.189952,-0.054902,0.15686
-0.189936,0.00784314,0.12549
-0.18992,-0.054902,0.15686
-0.189904,-0.0235294,0.12549
-0.189888,-0.0235294,0.12549
-0.189872,0.0392157,0.15686
-0.189856,-0.054902,0.12549
-0.18984,-0.0862745,0.28235
-0.189824,-0.054902,0.15686
-0.189808,-0.054902,0.12549
-0.189792,-0.0235294,0.15686
-0.189776,-0.0862745,0.094118
-0.18976,-0.054902,0.15686
-0.189744,0.00784314,0.15686
-0.189728,-0.117647,0.12549
-0.189712,-0.054902,0.12549
-0.189696,0.00784314,0.12549
-0.18968,0.0392157,0.12549
-0.189664,-0.054902,0.18824
-0.189648,-0.054902,0.12549
-0.189632,-0.0862745,0.12549
-0.189616,-0.054902,0.12549
-0.1896,-0.054902,0.094118
-0.189584,-0.0862745,0.12549
-0.189568,-0.054902,0.12549
-0.189552,-0.0862745,0.12549
-0.189536,-0.054902,0.12549
-0.18952,-0.0862745,0.15686
-0.189504,-0.054902,0.12549
-0.189488,-0.054902,0.12549
-0.189472,-0.0862745,0.15686
-0.189456,0.00784314,0.12549
-0.18944,-0.0862745,0.12549
-0.189424,0.00784314,0.12549
-0.189408,-0.054902,0.15686
-0.189392,-0.054902,0.094118
-0.189376,-0.0862745,0.18824
-0.18936,-0.0862745,0.12549
-0.189344,-0.0862745,0.12549
-0.189328,-0.117647,0.15686
-0.189312,-0.0862745,0.094118
-0.189296,0.0392157,0.15686
-0.18928,-0.0862745,0.15686
-0.189264,-0.14902,0.15686
-0.189248,-0.0235294,0.12549
-0.189232,-0.0235294,0.15686
-0.189216,-0.14902,0.094118
-0.1892,0.00784314,0.12549
-0.189184,-0.054902,0.12549
-0.189168,-0.054902,0.12549
-0.189152,-0.0862745,0.094118
-0.189136,-0.0235294,0.12549
-0.18912,-0.0862745,0.15686
-0.189104,-0.054902,0.094118
-0.189088,-0.054902,0.12549
-0.189072,-0.117647,0.12549
-0.189056,-0.0862745,0.12549
-0.18904,-0.054902,0.094118
