Data/JitterTest_260331-0401/Waveform_2026-04-01_091750_150641138.csv

Model,RTH1004
SerialNumber,104154
Firmware Version,'1.70.3.2'

Acquisition Time Stamp,2026-04-01 09:17:50.150641138,2026-04-01 09:17:50.150641138
Waveform Type,ANALOG,
Acquisition Mode,SAMPLE,
Horizontal Unit,s,
Horizontal Scale,0.2,
Horizontal Position,0.8,
Reference Point,50 %,
Sample Interval,1.6e-05,
Record Length,125000,
Probe Setting,'10:1','10:1'
Vertical Unit,V,V
Vertical Scale,2,2
Vertical Position,-3,0
Vertical Offset,0,0
History Index,0,0
History Time Stamp,0.000000000000,0.000000000000
,,
,CH1,CH2
,0.00784314,4.2667
,0.00784314,4.3294
,-0.0862745,4.2353
,0.00784314,4.2667
,0.00784314,4.3294
,-0.0235294,4.298
,0.00784314,4.298
,0.0392157,4.3608
,-0.0862745,4.2353
,0.00784314,4.298
,0.00784314,4.3608
,-0.0235294,4.2667
,0.00784314,4.3294
,0.00784314,4.2039
,-0.0235294,4.2353
,-0.054902,4.2353
,-0.0235294,4.298
,-0.0235294,4.2353
,0.00784314,4.2039
,-0.054902,4.2667
,-0.054902,4.3294
,-0.054902,4.2039
,-0.0235294,4.298
,-0.0235294,4.298
,-0.054902,4.2039
,-0.0235294,4.298
,-0.0235294,4.298
,0.0392157,4.3294
,-0.0235294,4.3608
,0.0392157,4.298
,-0.054902,4.298
,-0.0235294,4.3608
,0.00784314,4.3608
,0.00784314,4.2667
,-0.0235294,4.2667
,-0.0235294,4.3294
,0.00784314,4.298
,-0.0235294,4.298
,-0.0235294,4.298
,-0.054902,4.2353
,0.00784314,4.2353
,-0.0235294,4.3608
,0.0392157,4.2667
,-0.054902,4.298
,0.00784314,4.3294
,-0.054902,4.2667
,-0.0235294,4.2667
,-0.0235294,4.298
,-0.0235294,4.298
,-0.0235294,4.2039
,-0.0235294,4.298
,-0.0235294,4.298
,-0.0862745,4.2667
,-0.0235294,4.298
,-0.054902,4.298
,0.00784314,4.298
,-0.054902,4.298
,-0.0235294,4.298
,-0.0862745,4.298
,-0.0235294,4.2667
,0.0392157,4.298
,-0.0235294,4.2353
,0.00784314,4.298
,-0.054902,4.3294
,0.0392157,4.298
,0.00784314,4.3294
,-0.054902,4.298
,-0.0862745,4.2353
,0.00784314,4.2667
,0.00784314,4.298
,0.133333,4.298
,0.00784314,4.2353
,0.00784314,4.298
,-0.0235294,4.298
,-0.0235294,4.2353
,-0.054902,4.298
,-0.0862745,4.3294
,-0.0235294,4.2667
,0.00784314,4.298
,0.00784314,4.298
,-0.054902,4.3294
,0.00784314,4.2353
,-0.0235294,4.3608
,-0.0235294,4.298
,0.00784314,4.298
,-0.0862745,4.3922
,-0.0235294,4.2667
,-0.054902,4.298
,0.0705882,4.298
,-0.0235294,4.1725
,-0.0235294,4.298
,0.00784314,4.298
,-0.0235294,4.298
,-0.117647,4.2667
,-0.0235294,4.2667
,0.00784314,4.298
,-0.0235294,4.2667
,-0.0235294,4.2667
,-0.117647,4.2353
,0.00784314,4.2039
,-0.0235294,4.3608
,0.0392157,4.298
,0.00784314,4.1725
,0.00784314,4.2667
,0.00784314,4.2353
,-0.0862745,4.2039
,0.0392157,4.298
,-0.0235294,4.298
,-0.054902,4.2667
,-0.0235294,4.2353
,0.0392157,4.298
,0.0392157,4.2667
,0.00784314,4.298
,0.00784314,4.3922
,-0.054902,4.2667
,0.0705882,4.2667
,-0.117647,4.3608
,-0.0235294,4.3608
,-0.054902,4.3294
,-0.054902,4.298
,-0.0235294,4.3608
,-0.0235294,4.298
,-0.117647,4.298
,0.0392157,4.298
,-0.0235294,4.2667
,-0.054902,4.4235
,0.0392157,4.2667
,-0.0235294,4.2667
,-0.0235294,4.298
,-0.054902,4.3294
,-0.054902,4.2353
,0.00784314,4.298
,-0.0235294,4.3922
,-0.054902,4.1412
,-0.054902,4.2353
,-0.0235294,4.298
,-0.0862745,4.2667
,0.00784314,4.2667
,-0.0235294,4.3294
,0.0392157,4.298
,-0.0235294,4.298
,-0.054902,4.298
,0.0392157,4.3922
,0.0705882,4.298
,0.0392157,4.3922
,0.00784314,4.2667
,-0.054902,4.2353
,-0.0235294,4.3294
,-0.054902,4.3294
,-0.0862745,4.2667
,0.00784314,4.3608
,0.0705882,4.298
,-0.054902,4.2667
,-0.054902,4.298
,0.0705882,4.3294
,0.00784314,4.2039
,-0.0235294,4.298
,-0.0235294,4.3922
,0.00784314,4.2667
,0.00784314,4.2353
,-0.054902,4.3608
,-0.0862745,4.298
,0.00784314,4.2039
,-0.0235294,4.2667
,0.00784314,4.298
,-0.0235294,4.3608
,0.0392157,4.3294
,-0.0235294,4.2667
,-0.0235294,4.298
,0.101961,4.3294
,-0.0235294,4.3922
,0.0392157,4.298
,0.00784314,4.3608
,-0.0235294,4.2667
,-0.0235294,4.2039
,0.101961,4.298
,-0.0235294,4.3294
,0.00784314,4.2667
,-0.0235294,4.2667
,0.00784314,4.298
,-0.0235294,4.2353
,0.0392157,4.3294
,-0.0235294,4.2667
,-0.054902,4.2039
,0.00784314,4.2039
,0.0392157,4.3294
,-0.0235294,4.3294
,0.0392157,4.298
,0.0392157,4.3294
,0.00784314,4.3294
,-0.0235294,4.3294
,0.00784314,4.3608
,-0.0862745,4.298
,-0.0235294,4.298
,-0.054902,4.3922
,-0.054902,4.298
,0.0392157,4.2353
,0.0392157,4.298
,-0.0235294,4.298
,0.00784314,4.2667
,0.00784314,4.298
,0.00784314,4.298
,-0.0235294,4.2667
,-0.0235294,4.2353
,-0.0235294,4.3294
,-0.0235294,4.2667
,-0.0235294,4.2667
,-0.054902,4.298
,-0.117647,4.298
,-0.0235294,4.3294
,-0.0235294,4.3608
,-0.0235294,4.2667
,0.00784314,4.298
,0.00784314,4.3922
,-0.0862745,4.2667
,0.00784314,4.2667
,-0.0235294,4.3294
,-0.0235294,4.298
,0.00784314,4.3294
,-0.0235294,4.298
,-0.0235294,4.3608
,0.0392157,4.2039
,-0.0235294,4.298
,0.0705882,4.3608
,-0.0862745,4.2667
,0.00784314,4.298
,-0.0235294,4.3294
,0.00784314,4.2353
,-0.054902,4.2667
,-0.0235294,4.298
,-0.0235294,4.2039
,-0.0235294,4.2353
,0.00784314,4.3922
,-0.0235294,4.2353
,-0.0235294,4.298
,0.101961,4.298
,-0.0235294,4.298
,-0.0235294,4.2353
,-0.0235294,4.3294
,-0.054902,4.2353
,-0.0235294,4.298
,-0.0235294,4.3922
,0.0392157,4.3922
,0.00784314,4.2039
,-0.0235294,4.3922
,-0.0235294,4.298
,0.00784314,4.2667
,0.0392157,4.298
,-0.054902,4.3608
,0.00784314,4.2353
,-0.054902,4.3608
,-0.0235294,4.3294
,-0.0235294,4.2039
,0.0705882,4.298
,-0.0235294,4.2667
,-0.0235294,4.2667
,0.0705882,4.2039
,-0.0235294,4.298
,0.00784314,4.2667
,-0.054902,4.2667
,-0.054902,4.3608
,0.00784314,4.2667
,0.0705882,4.298
,0.00784314,4.3608
,0.00784314,4.298
,0.00784314,4.298
,0.0705882,4.3608
,-0.0235294,4.2353
,0.00784314,4.2353
,-0.054902,4.298
,0.00784314,4.298
,0.00784314,4.2667
,0.0392157,4.3608
,-0.0862745,4.3608
,0.0392157,4.3608
,-0.054902,4.298
,-0.0235294,4.3608
,-0.054902,4.2667
,-0.054902,4.3922
,-0.054902,4.3294
,-0.054902,4.2667
,0.00784314,4.3294
,-0.0235294,4.3608
,-0.054902,4.2039
,-0.0235294,4.2353
,0.00784314,4.298
,-0.0235294,4.2667
,0.00784314,4.2039
,0.00784314,4.298
,0.00784314,4.298
,0.00784314,4.2039
,-0.0235294,4.298
,0.0392157,4.298
,-0.054902,4.298
,0.00784314,4.2667
,-0.0235294,4.298
,-0.0235294,4.2039
,-0.054902,4.298
,-0.0235294,4.3294
,-0.054902,4.2667
,0.00784314,4.298
,-0.0235294,4.298
,0.00784314,4.298
,0.00784314,4.298
,-0.0862745,4.298
,0.00784314,4.298
,0.00784314,4.298
,0.00784314,4.3608
,-0.0235294,4.2667
,-0.0235294,4.298
,-0.0235294,4.3608
,0.00784314,4.298
,-0.0235294,4.2353
,-0.0235294,4.298
,-0.117647,4.2353
,-0.0862745,4.2353
,-0.0235294,4.2667
,0.00784314,4.2667
,-0.0862745,4.2667
,0.00784314,4.3608
,0.0392157,4.3294
,0.0705882,4.2667
,0.0392157,4.2667
,-0.054902,4.298
,0.00784314,4.2667
,-0.0235294,4.298
,-0.0235294,4.298
,-0.0235294,4.2667
,0.0705882,4.298
,-0.0235294,4.3922
,0.00784314,4.2353
,-0.0862745,4.298
,0.0392157,4.3922
,0.0392157,4.2667
,0.00784314,4.2353
,0.00784314,4.3294
,-0.0235294,4.298
,-0.0235294,4.2667
,0.00784314,4.2667
,-0.0235294,4.2667
,-0.0235294,4.2039
,-0.0235294,4.2667
,-0.0235294,4.2353
,-0.0235294,4.2353
,0.0705882,4.2667
,-0.0862745,4.2353
,0.0392157,4.2667
,-0.054902,4.3294
,-0.0235294,4.3294
,-0.0235294,4.3294
,0.0392157,4.298
,-0.117647,4.3608
,0.00784314,4.2667
,0.00784314,4.3294
,-0.117647,4.3608
,0.00784314,4.2667
,0.00784314,4.3608
,-0.0862745,4.3608
,-0.054902,4.298
,-0.054902,4.2667
,0.00784314,4.298
,-0.0235294,4.3294
,-0.0235294,4.298
,-0.054902,4.3294
,-0.0235294,4.2667
,-0.0235294,4.2353
,-0.0235294,4.298
,0.0705882,4.298
,-0.0235294,4.1725
,-0.0235294,4.2353
,-0.0235294,4.2667
,-0.0235294,4.3608
,0.00784314,4.298
,0.0705882,4.4235
,-0.0235294,4.298
,0.0392157,4.3294
,-0.0235294,4.298
,-0.0862745,4.3294
,0.00784314,4.298
,0.00784314,4.3608
,0.0392157,4.2667
,-0.0235294,4.3608
,-0.054902,4.4235
,0.00784314,4.2353
,0.00784314,4.2667
,0.00784314,4.3608
,0.00784314,4.3294
,-0.0862745,4.2353
,0.00784314,4.2667
,-0.0235294,4.2353
,0.00784314,4.2039
,0.00784314,4.3294
,-0.0235294,4.3294
,-0.0235294,4.298
,-0.0235294,4.298
,-0.054902,4.298
,-0.0235294,4.2353
,0.0392157,4.2667
,-0.054902,4.3294
,0.00784314,4.2667
,-0.054902,4.2667
,0.00784314,4.3294
,0.00784314,4.2667
,0.0392157,4.298
,0.101961,4.3294
,0.00784314,4.2667
,0.00784314,4.3294
,0.00784314,4.3294
,0.00784314,4.298
,0.0392157,4.298
,0.101961,4.2667
,-0.054902,4.3294
,0.0392157,4.3294
,-0.0235294,4.2667
,0.0392157,4.2353
,0.00784314,4.298
,-0.0235294,4.298
,-0.0235294,4.298
,0.00784314,4.298
,0.0392157,4.2667
,-0.0235294,4.298
,0.00784314,4.2667
,-0.0235294,4.3922
,0.0705882,4.3608
,-0.0235294,4.2667
,0.0392157,4.298
,-0.0235294,4.3294
,0.00784314,4.2667
,-0.0235294,4.3294
,0.00784314,4.3922
,-0.0235294,4.3294
,0.00784314,4.3294
,0.00784314,4.4235
,-0.0235294,4.3608
,0.0392157,4.2667
,-0.0862745,4.3294
,-0.054902,4.3294
,-0.0235294,4.2353
,-0.0235294,4.3294
,0.0392157,4.2353
,-0.054902,4.3294
,-0.0862745,4.298
,0.00784314,4.298
,-0.054902,4.2667
,0.00784314,4.3294
,-0.054902,4.2667
,0.00784314,4.2353
,-0.0235294,4.3294
,-0.054902,4.3294
,-0.0235294,4.298
,0.00784314,4.298
,-0.0235294,4.3294
,0.00784314,4.3294
,-0.0235294,4.298
,0.0392157,4.3294
,-0.0235294,4.2353
,-0.054902,4.298
,0.0392157,4.3922
,-0.0862745,4.1725
,0.00784314,4.3608
,0.0705882,4.2353
,-0.054902,4.298
,-0.0235294,4.1412
,0.00784314,4.2353
,0.0392157,4.298
,-0.0235294,4.2667
,-0.0235294,4.2667
,0.0392157,4.298
,-0.054902,4.2667
,-0.054902,4.298
,0.0392157,4.298
,-0.054902,4.1412
,0.00784314,4.3294
,-0.117647,4.2667
,0.00784314,4.2667
,-0.0862745,4.298
,-0.0235294,4.298
,0.00784314,4.3294
,0.00784314,4.2667
,0.0392157,4.3922
,-0.054902,4.2667
,0.00784314,4.2667
,-0.0235294,4.298
,0.00784314,4.3294
,-0.054902,4.3608
,-0.0235294,4.298
,-0.0862745,4.298
,0.00784314,4.298
,0.00784314,4.298
,0.0392157,4.2667
,0.00784314,4.2353
,0.00784314,4.2667
,-0.0235294,4.2353
,0.00784314,4.2039
,-0.054902,4.1725
,0.00784314,4.298
,-0.0235294,4.2667
,-0.0235294,4.298
,0.0392157,4.3608
,-0.0862745,4.2039
,0.0392157,4.2667
,-0.0235294,4.298
,0.00784314,4.2667
,-0.0235294,4.2353
,0.0705882,4.298
,-0.054902,4.298
,-0.0235294,4.3608
,-0.0235294,4.3294
,-0.0235294,4.298
,-0.0235294,4.298
,-0.054902,4.3294
,-0.0235294,4.298
,-0.054902,4.2667
,-0.0235294,4.3608
,-0.0235294,4.2667
,0.00784314,4.298
,-0.0235294,4.298
,-0.0862745,4.2667
,-0.0235294,4.2667
,0.00784314,4.2667
,-0.0235294,4.2667
,-0.0235294,4.2667
,-0.054902,4.298
,0.0392157,4.3608
,-0.0235294,4.2667
,-0.054902,4.3294
,-0.0235294,4.3294
,-0.0235294,4.2353
,-0.0235294,4.298
,-0.054902,4.298
,-0.0235294,4.2353
,-0.0235294,4.2667
,-0.0235294,4.3608
,0.00784314,4.2039
,-0.0235294,4.2667
,-0.0235294,4.298
,0.00784314,4.2667
,-0.0235294,4.2353
,0.0392157,4.298
,0.00784314,4.2353
,-0.0235294,4.298
,-0.0862745,4.298
,-0.0862745,4.2667
,-0.054902,4.2353
,-0.0235294,4.298
,0.196078,4.4549
,0.00784314,4.2667
,-0.054902,4.2353
,0.00784314,4.2667
,-0.054902,4.2667
,0.0705882,4.3294
,0.00784314,4.3294
,-0.054902,4.2353
,-0.0235294,4.298
,0.0705882,4.3608
,-0.054902,4.2667
,-0.0235294,4.2667
,-0.0235294,4.3608
,-0.0235294,4.2667
,-0.054902,4.2039
,-0.0235294,4.3294
,0.00784314,4.1725
,-0.0235294,4.2667
,-0.0235294,4.2667
,0.00784314,4.2667
,0.00784314,4.2039
,-0.054902,4.2667
,-0.0235294,4.2667
,-0.0235294,4.2039
,0.0705882,4.298
,-0.0235294,4.2667
,0.00784314,4.2353
,0.00784314,4.3608
,0.00784314,4.3608
,-0.0862745,4.2667
,0.0392157,4.3608
,0.0392157,4.3294
,-0.0235294,4.298
,-0.0235294,4.2667
,-0.0235294,4.3294
,-0.0862745,4.3294
,-0.054902,4.2667
,0.00784314,4.3608
,0.00784314,4.298
,0.00784314,4.298
,0.0392157,4.3922
,0.0392157,4.2667
,0.00784314,4.298
,0.0392157,4.2353
,-0.054902,4.3608
,-0.0235294,4.2667
,-0.054902,4.298
,-0.0235294,4.298
,0.0705882,4.298
,0.00784314,4.298
,0.00784314,4.2667
,-0.0235294,4.1412
,0.0705882,4.3294
,-0.0235294,4.3294
,-0.0235294,4.2353
,-0.054902,4.3608
,0.00784314,4.2667
,-0.0235294,4.3294
,-0.0235294,4.298
,-0.0862745,4.2667
,0.00784314,4.298
,-0.0235294,4.298
,-0.0235294,4.298
,-0.0235294,4.2667
,-0.0235294,4.2667
,0.00784314,4.3608
,-0.0235294,4.3294
,-0.0235294,4.2039
,-0.0235294,4.3294
,-0.0862745,4.298
,0.0392157,4.2667
,0.00784314,4.3294
,-0.054902,4.3294
,0.00784314,4.298
,-0.0235294,4.298
,0.00784314,4.298
,-0.0235294,4.2039
,-0.0235294,4.298
,-0.0862745,4.2353
,-0.0235294,4.2039
,0.0392157,4.3294
,-0.0235294,4.298
,0.00784314,4.3294
,-0.0235294,4.3294
,-0.054902,4.3608
,0.0392157,4.298
,0.00784314,4.2667
,0.00784314,4.4235
,-0.0862745,4.298
,-0.054902,4.3294
,-0.0862745,4.298
,-0.054902,4.2667
,0.0392157,4.298
,-0.0235294,4.298
,-0.0235294,4.2667
,-0.054902,4.2353
,-0.0862745,4.3608
,-0.054902,4.298
,-0.054902,4.2039
,-0.054902,4.298
,0.00784314,4.3294
,0.0705882,4.2353
,0.00784314,4.298
,-0.0235294,4.298
,-0.0235294,4.2039
,0.00784314,4.2353
,-0.054902,4.3608
,-0.0235294,4.2667
,0.00784314,4.298
,-0.0235294,4.2667
,0.00784314,4.2667
,-0.0862745,4.298
,0.00784314,4.2667
,-0.054902,4.2039
,0.0705882,4.2039
,0.00784314,4.3922
,-0.054902,4.2039
,0.00784314,4.2667
,-0.0235294,4.3608
,0.00784314,4.2667
,0.00784314,4.2039
,-0.0235294,4.3922
,0.00784314,4.298
,0.00784314,4.2667
,-0.117647,4.298
,0.00784314,4.2353
,0.00784314,4.2353
,0.00784314,4.3608
,-0.0235294,4.3294
,-0.054902,4.2667
,-0.0235294,4.298
,0.00784314,4.298
,-0.054902,4.2039
,-0.0235294,4.2667
,-0.0235294,4.3294
,-0.0235294,4.1725
,0.0392157,4.298
,-0.0235294,4.3608
,-0.0862745,4.2353
,-0.0235294,4.298
,-0.054902,4.3608
,-0.0235294,4.2667
,0.00784314,4.2667
,0.00784314,4.2667
,-0.054902,4.3294
,-0.0235294,4.2667
,0.0392157,4.3294
,-0.0862745,4.3294
,0.00784314,4.2353
,0.00784314,4.3294
,-0.0235294,4.298
,-0.0235294,4.2667
,-0.054902,4.298
,0.00784314,4.2667
,-0.0235294,4.2353
,0.00784314,4.2353
,-0.0235294,4.3294
,-0.0235294,4.2667
,-0.0235294,4.298
,0.0705882,4.3608
,-0.0235294,4.1725
,0.00784314,4.2039
,-0.054902,4.3922
,-0.0235294,4.2667
,-0.0235294,4.2353
,-0.054902,4.3608
,-0.0235294,4.298
,0.0392157,4.298
,-0.0235294,4.3608
,-0.0235294,4.3294
,0.00784314,4.2667
,0.00784314,4.3608
,-0.0235294,4.3608
,-0.0235294,4.2353
,-0.0862745,4.2353
,0.0392157,4.3608
,-0.0235294,4.298
,-0.0235294,4.3922
,0.0392157,4.2667
,-0.054902,4.2039
,-0.0235294,4.2667
,-0.0235294,4.3294
,0.00784314,4.2353
,-0.0235294,4.2039
,-0.054902,4.3608
,-0.054902,4.2353
,0.00784314,4.2667
,-0.0862745,4.3922
,-0.0235294,4.2667
,-0.054902,4.2667
,0.00784314,4.3922
,0.0705882,4.2667
,0.00784314,4.298
,-0.0235294,4.4235
,-0.054902,4.298
,0.00784314,4.2353
,0.0392157,4.3294
,-0.054902,4.298
,-0.0235294,4.2353
,-0.054902,4.298
,0.00784314,4.298
,-0.0235294,4.298
,-0.0235294,4.3294
,0.00784314,4.298
,0.0392157,4.2353
,0.0392157,4.2667
,0.00784314,4.3294
,-0.054902,4.298
,-0.0235294,4.2353
,0.00784314,4.3294
,-0.0235294,4.298
,-0.054902,4.2667
,-0.0235294,4.3608
,0.00784314,4.1412
,-0.0235294,4.298
,0.00784314,4.3294
,0.00784314,4.2039
,-0.0235294,4.1412
,-0.0862745,4.3608
,0.0705882,4.298
,0.0392157,4.298
,-0.0235294,4.298
,-0.054902,4.298
,0.0705882,4.298
,0.00784314,4.298
,-0.054902,4.2667
,-0.0235294,4.2353
,-0.0862745,4.3608
,0.00784314,4.3294
,-0.054902,4.2667
,0.0392157,4.2667
,-0.0862745,4.298
,-0.054902,4.2667
,-0.0862745,4.2667
,-0.054902,4.298
,0.00784314,4.2039
,-0.0862745,4.2667
,0.0392157,4.3922
,-0.0235294,4.2039
,0.00784314,4.2353
,0.00784314,4.3294
,-0.054902,4.298
,0.00784314,4.3294
,-0.0862745,4.298
,-0.0862745,4.1412
,0.0392157,4.2039
,-0.054902,4.298
,0.00784314,4.298
,-0.0235294,4.298
,0.00784314,4.3294
,-0.0235294,4.2667
,-0.0235294,4.2667
,-0.054902,4.298
,0.00784314,4.2667
,-0.054902,4.298
,-0.054902,4.3294
,-0.0235294,4.3294
,0.00784314,4.2353
,0.0392157,4.298
,-0.0235294,4.3608
,-0.0235294,4.2039
,-0.0235294,4.2353
,0.00784314,4.298
,-0.0235294,4.2667
,0.0705882,4.2039
,0.0705882,4.298
,-0.0235294,4.2667
,0.0392157,4.1725
,0.00784314,4.2353
,0.0392157,4.2667
,0.0392157,4.2353
,0.00784314,4.3922
,-0.054902,4.298
,-0.054902,4.2667
,-0.0862745,4.2353
,-0.0235294,4.3294
,-0.0235294,4.2667
,-0.0235294,4.3922
,-0.0235294,4.3608
,-0.054902,4.3294
,-0.0235294,4.298
,-0.0235294,4.3608
,0.00784314,4.2667
,-0.0235294,4.3294
,-0.054902,4.3294
,-0.0235294,4.298
,0.00784314,4.3294
,-0.0235294,4.298
,-0.0235294,4.2353
,0.0705882,4.2667
,-0.054902,4.2667
,-0.054902,4.2667
,-0.0235294,4.3294
,0.00784314,4.2353
,0.0392157,4.3294
,0.0705882,4.2667
,-0.0235294,4.298
,0.00784314,4.3608
,-0.054902,4.2667
,0.00784314,4.3608
,-0.054902,4.298
,0.101961,4.3294
,0.0392157,4.298
,0.0705882,4.298
,0.00784314,4.298
,-0.054902,4.298
,-0.0235294,4.3608
,0.00784314,4.2039
,0.0392157,4.298
,-0.0235294,4.3294
,-0.0235294,4.298
,0.0705882,4.4235
,0.00784314,4.298
,-0.0235294,4.3294
,0.0392157,4.2667
,-0.0235294,4.3294
,0.0705882,4.4235
,-0.0862745,4.2039
,0.00784314,4.2667
,0.00784314,4.2353
,-0.0235294,4.1725
,0.00784314,4.298
,-0.0235294,4.2353
,-0.054902,4.298
,0.0392157,4.2667
,0.00784314,4.298
,0.00784314,4.2667
,-0.0862745,4.298
,-0.0235294,4.3608
,0.0392157,4.3294
,0.0392157,4.2353
,-0.0235294,4.3608
,0.0392157,4.2353
,0.0705882,4.3608
,0.00784314,4.298
,-0.0235294,4.3294
,0.00784314,4.2353
,-0.0235294,4.298
,-0.054902,4.3294
,0.00784314,4.2039
,-0.054902,4.298
,0.0392157,4.298
,0.00784314,4.2039
,-0.054902,4.3608
,-0.0235294,4.2667
,0.00784314,4.2667
,-0.117647,4.2667
,-0.0235294,4.2667
,-0.054902,4.2353
,0.00784314,4.2667
,-0.0235294,4.3922
,0.00784314,4.298
,0.00784314,4.3922
,-0.0235294,4.2667
,-0.0235294,4.3294
,0.0392157,4.2667
,0.0705882,4.3608
,0.00784314,4.298
,0.00784314,4.2667
,-0.054902,4.3608
,0.00784314,4.2667
,0.00784314,4.2667
,-0.0235294,4.298
,0.00784314,4.2667
,-0.0862745,4.2667
,0.00784314,4.3294
,-0.054902,4.2667
,-0.054902,4.2353
,0.00784314,4.298
,0.00784314,4.2667
,-0.054902,4.2353
,0.0392157,4.2667
,-0.0235294,4.2039
,0.0705882,4.298
,0.00784314,4.3922
,0.00784314,4.3608
,-0.0235294,4.298
,-0.0862745,4.2667
,-0.0235294,4.3608
,-0.0235294,4.2667
,0.00784314,4.3922
,-0.054902,4.3922
,-0.0235294,4.2353
,0.0392157,4.2667
,-0.0235294,4.3294
,-0.054902,4.2667
,-0.0235294,4.298
,-0.054902,4.298
,0.00784314,4.298
,-0.054902,4.2353
,0.00784314,4.2353
,-0.054902,4.298
,0.00784314,4.2039
,-0.054902,4.2039
,0.00784314,4.2667
,-0.054902,4.2039
,-0.0235294,4.2667
,-0.0235294,4.3608
,0.00784314,4.298
,-0.0235294,4.298
,-0.054902,4.3294
,0.00784314,4.2667
,0.00784314,4.298
,-0.0235294,4.4235
,0.00784314,4.298
,-0.054902,4.298
,-0.0235294,4.3294
,-0.0235294,4.298
,-0.0235294,4.298
,-0.054902,4.298
,-0.0235294,4.2039
,-0.0235294,4.298
,-0.0235294,4.298
,-0.0235294,4.2667
,0.00784314,4.2353
,-0.0235294,4.2353
,0.00784314,4.2667
,-0.0235294,4.2353
,-0.054902,4.298
,0.00784314,4.298
,0.00784314,4.298
,-0.0235294,4.3608
,0.0392157,4.298
,-0.0235294,4.2353
,-0.0235294,4.3922
,0.00784314,4.298
,0.00784314,4.298
,0.00784314,4.298
,0.00784314,4.3608
,-0.0235294,4.298
,-0.0235294,4.3608
,-0.0235294,4.298
,-0.0235294,4.2667
,-0.0235294,4.298
,0.0392157,4.3608
,-0.0235294,4.3294
,0.00784314,4.3294
,0.00784314,4.3608
,-0.0862745,4.2353
,-0.054902,4.298
,-0.054902,4.298
,-0.0862745,4.2353
,0.0392157,4.2039
,0.0392157,4.2667
,0.00784314,4.298
,-0.0235294,4.2667
,-0.054902,4.298
,0.00784314,4.2667
,-0.054902,4.2353
,0.00784314,4.298
,-0.0235294,4.3922
,0.00784314,4.2667
,-0.054902,4.3922
,-0.0862745,4.3294
,0.00784314,4.2667
,0.00784314,4.3608
,0.00784314,4.3608
,-0.0862745,4.298
,0.00784314,4.3608
,0.0392157,4.3294
,-0.0235294,4.2667
,0.0705882,4.3294
,0.00784314,4.2667
,0.00784314,4.2667
,-0.054902,4.2667
,-0.0235294,4.298
,-0.0862745,4.2667
,-0.0235294,4.2039
,-0.0235294,4.298
,-0.0235294,4.298
,-0.0235294,4.3294
,0.00784314,4.2353
,0.00784314,4.298
,-0.0235294,4.3294
,-0.0235294,4.3608
,-0.0862745,4.298
,0.00784314,4.298
,-0.0235294,4.298
,0.00784314,4.3608
,0.00784314,4.298
,0.00784314,4.298
,-0.054902,4.3608
,-0.0235294,4.2667
,-0.0235294,4.298
,-0.0235294,4.3608
,-0.0235294,4.298
,0.0705882,4.298
,-0.054902,4.298
,-0.0235294,4.2667
,0.00784314,4.2039
,0.00784314,4.298
,-0.0235294,4.298
,0.00784314,4.2039
,0.0392157,4.3608
,-0.0235294,4.2667
,-0.054902,4.2039
,-0.0235294,4.298
,0.00784314,4.298
,-0.0235294,4.2353
,-0.0235294,4.3608
,-0.0862745,4.298
,0.00784314,4.298
,0.00784314,4.2667
,-0.0235294,4.298
,0.0392157,4.2667
,-0.054902,4.4235
,0.00784314,4.3294
,0.00784314,4.298
,0.0392157,4.2667
,-0.054902,4.3922
,-0.0235294,4.2667
,0.00784314,4.3294
,-0.0862745,4.298
,0.00784314,4.298
,0.00784314,4.298
